<svg width="14" height="24" viewBox="0 0 14 24" fill="none" xmlns="http://www.w3.org/2000/svg">
<path d="M12.5535 23.7602L13.7558 22.5579C13.9163 22.3977 13.9963 22.2131 13.9963 22.0045C13.9963 21.7963 13.9163 21.6119 13.7558 21.4517L4.30474 12.0001L13.7555 2.54901C13.9161 2.38872 13.9961 2.20425 13.9961 1.99587C13.9961 1.78739 13.9161 1.60293 13.7555 1.44272L12.5532 0.240565C12.393 0.0800199 12.2085 -7.81478e-08 12.0001 -8.72605e-08C11.7917 -9.63658e-08 11.6073 0.0802725 11.4471 0.240565L0.240406 11.447C0.0801135 11.6072 8.95554e-06 11.7917 8.94643e-06 12.0001C8.93732e-06 12.2085 0.0801134 12.3927 0.240406 12.5529L11.4471 23.7602C11.6074 23.9204 11.7918 24 12 24C12.2085 24 12.393 23.9204 12.5535 23.7602Z" fill="#F6F6F6"/>
</svg>
