<svg width="24" height="24" viewBox="0 0 24 24" fill="none" xmlns="http://www.w3.org/2000/svg">
<g clip-path="url(#clip0)">
<path d="M17.5552 23.7602L18.7575 22.5579C18.918 22.3977 18.998 22.2131 18.998 22.0045C18.998 21.7963 18.918 21.6119 18.7575 21.4517L9.30645 12.0001L18.7572 2.54901C18.9178 2.38872 18.9978 2.20425 18.9978 1.99587C18.9978 1.78739 18.9178 1.60293 18.7572 1.44272L17.5549 0.240565C17.3947 0.0800199 17.2102 -7.81478e-08 17.0018 -8.72605e-08C16.7935 -9.63658e-08 16.609 0.0802725 16.4488 0.240565L5.24212 11.447C5.08182 11.6072 5.00172 11.7917 5.00172 12.0001C5.00172 12.2085 5.08182 12.3927 5.24212 12.5529L16.4488 23.7602C16.6091 23.9204 16.7935 24 17.0018 24C17.2102 24 17.3947 23.9204 17.5552 23.7602Z" fill="#878787"/>
</g>
<defs>
<clipPath id="clip0">
<rect width="24" height="24" fill="white" transform="translate(24) rotate(90)"/>
</clipPath>
</defs>
</svg>
