<svg width="11" height="6" viewBox="0 0 11 6" fill="none" xmlns="http://www.w3.org/2000/svg">
<path d="M10.8901 0.618506L10.339 0.103126C10.2656 0.0343032 10.181 0 10.0854 0C9.98999 0 9.90544 0.0343032 9.83201 0.103126L5.50006 4.15463L1.1683 0.103235C1.09483 0.0344116 1.01028 0.000108267 0.914772 0.000108267C0.819222 0.000108267 0.734674 0.0344116 0.661245 0.103235L0.110259 0.61865C0.0366758 0.687329 0 0.766407 0 0.855776C0 0.945073 0.0367916 1.02415 0.110259 1.09283L5.24653 5.89695C5.31996 5.96566 5.40455 6 5.50006 6C5.59557 6 5.68 5.96566 5.75339 5.89695L10.8901 1.09283C10.9635 1.02411 11 0.945037 11 0.855776C11 0.766407 10.9635 0.687329 10.8901 0.618506Z" fill="#878787"/>
</svg>
